201 JACKSON   BO    HW: 25 25 25 25 Q: 10 10 10 T: 50 50 FE: 100
202 KELLY     JIM   HW: 9  15 20 17 Q: 10  8  7 T: 42 36 FE:  89 
203 DAWNKINS  BRIAN HW: 15 15 15 15 Q:  8  9 10 T: 50 45 FE:  95
204 CRUZE     TED   HW: 16 17 14 20 Q: 10 10 10 T: 47 50 FE:  97 
205 BONE      KEN   HW: 14  8  9 15 Q:  4  5  7 T: 26 36 FE:  22 

